<?xml version="1.0" encoding="UTF-8" standalone="no"?>
<svg
   xmlns:dc="http://purl.org/dc/elements/1.1/"
   xmlns:cc="http://creativecommons.org/ns#"
   xmlns:rdf="http://www.w3.org/1999/02/22-rdf-syntax-ns#"
   xmlns:svg="http://www.w3.org/2000/svg"
   xmlns="http://www.w3.org/2000/svg"
   xmlns:sodipodi="http://sodipodi.sourceforge.net/DTD/sodipodi-0.dtd"
   xmlns:inkscape="http://www.inkscape.org/namespaces/inkscape"
   width="327.95081"
   height="132.94543"
   viewBox="0 0 327.95081 132.94543"
   version="1.1"
   id="svg26"
   sodipodi:docname="stripegooglepay_inverted.svg"
   inkscape:version="0.92.4 (5da689c313, 2019-01-14)">
  <metadata
     id="metadata32">
    <rdf:RDF>
      <cc:Work
         rdf:about="">
        <dc:format>image/svg+xml</dc:format>
        <dc:type
           rdf:resource="http://purl.org/dc/dcmitype/StillImage" />
        <dc:title>GooglePay_mark_800_gray</dc:title>
      </cc:Work>
    </rdf:RDF>
  </metadata>
  <defs
     id="defs30">
    <clipPath
       clipPathUnits="userSpaceOnUse"
       id="clipPath843">
      <rect
         style="fill:none;fill-opacity:1;stroke:none;stroke-width:10.2009449;stroke-linecap:square;stroke-linejoin:miter;stroke-miterlimit:4;stroke-dasharray:none;stroke-dashoffset:0;paint-order:normal"
         id="rect845"
         width="327.95081"
         height="132.94543"
         x="49.471992"
         y="76.969421" />
    </clipPath>
  </defs>
  <sodipodi:namedview
     pagecolor="#ffffff"
     bordercolor="#666666"
     borderopacity="1"
     objecttolerance="10"
     gridtolerance="10"
     guidetolerance="10"
     inkscape:pageopacity="0"
     inkscape:pageshadow="2"
     inkscape:window-width="1920"
     inkscape:window-height="1017"
     id="namedview28"
     showgrid="false"
     inkscape:pagecheckerboard="true"
     inkscape:zoom="1.9299856"
     inkscape:cx="108.22035"
     inkscape:cy="121.23816"
     inkscape:window-x="1912"
     inkscape:window-y="-8"
     inkscape:window-maximized="1"
     inkscape:current-layer="Page-1" />
  <!-- Generator: Sketch 52.1 (67048) - http://www.bohemiancoding.com/sketch -->
  <title
     id="title2">GooglePay_mark_800_gray</title>
  <desc
     id="desc4">Created with Sketch.</desc>
  <g
     id="Page-1"
     clip-path="url(#clipPath843)"
     style="fill:none;fill-rule:evenodd;stroke:none;stroke-width:1"
     transform="translate(-49.471992,-76.969421)">
    <g
       id="GooglePay_mark_800_gray">
      <g
         id="border" />
      <g
         id="GPay-logo"
         transform="translate(48.759036,76.981132)">
        <g
           id="Pay"
           transform="translate(143.5699,7.624798)"
           style="fill:#3c4043">
          <path
             d="M 12.177133,57.643472 V 96.377445 H 0.07516749 V 0.76247978 H 32.171685 C 39.913937,0.60998383 47.430686,3.583655 52.917912,9.0735094 63.892366,19.443234 64.568873,36.904022 54.270927,48.112474 c -0.451005,0.457488 -0.90201,0.914976 -1.353015,1.372464 -5.637561,5.413606 -12.55297,8.158534 -20.746227,8.158534 z m 0,-45.138804 v 33.396615 h 20.295222 c 4.51005,0.152496 8.869764,-1.677456 11.951631,-4.956119 C 50.738055,34.31159 50.58772,23.636873 44.048149,17.232043 40.966282,14.182124 36.83207,12.504668 32.472355,12.504668 Z"
             id="Shape"
             inkscape:connector-curvature="0"
             style="fill-rule:nonzero;fill:#000000" />
          <path
             d="m 89.52448,28.821736 c 8.944931,0 16.01068,2.439935 21.19723,7.243558 5.18656,4.803622 7.74225,11.513444 7.74225,19.97697 v 40.335181 h -11.57579 v -9.07351 H 106.362 c -5.03623,7.472302 -11.650964,11.208453 -19.994555,11.208453 -7.065744,0 -13.079143,-2.134943 -17.814695,-6.40483 -4.660384,-3.964895 -7.291246,-9.835989 -7.140911,-16.012075 0,-6.786071 2.555694,-12.123429 7.591916,-16.164572 5.036222,-4.041143 11.801296,-6.02359 20.220055,-6.02359 7.216079,0 13.07914,1.372463 17.73953,3.964895 V 55.05104 c 0,-4.193638 -1.80402,-8.158533 -4.96106,-10.903461 -3.232199,-2.897423 -7.366411,-4.49863 -11.650958,-4.49863 -6.765074,0 -12.101966,2.897423 -16.010675,8.692269 L 63.666863,41.555148 C 69.379592,33.091623 78.023854,28.821736 89.52448,28.821736 Z m -15.634838,47.50249 c 0,3.202415 1.50335,6.176087 3.983877,8.006038 2.706029,2.134944 6.013399,3.278663 9.395936,3.202415 5.111389,0 9.997276,-2.058695 13.605315,-5.718598 3.98388,-3.812399 6.0134,-8.31103 6.0134,-13.495892 -3.75837,-3.049919 -9.020099,-4.574879 -15.785173,-4.498631 -4.885887,0 -9.020099,1.219968 -12.327468,3.583655 -3.232202,2.363687 -4.885887,5.337358 -4.885887,8.921013 z"
             id="path10"
             inkscape:connector-curvature="0"
             style="fill-rule:nonzero;fill:#000000" />
          <polygon
             id="Path"
             points="131.99411,125.12293 147.02761,92.183806 120.49349,30.956679 133.6478,30.956679 152.81551,77.925434 153.04101,77.925434 171.75771,30.956679 184.91202,30.956679 144.47191,125.12293 "
             style="fill:#000000" />
        </g>
        <g
           id="Super-G">
          <path
             d="m 106.813,56.880992 c 0,-3.736151 -0.30067,-7.472302 -0.90201,-11.132205 H 54.872267 v 21.12069 H 84.11242 c -1.202679,6.78607 -5.111389,12.885908 -10.824118,16.698307 V 97.292421 H 90.727159 C 100.94994,87.761423 106.813,73.655547 106.813,56.880992 Z"
             id="path14"
             inkscape:connector-curvature="0"
             style="fill:#4285f4" />
          <path
             d="m 54.872267,110.55957 c 14.582493,0 26.909961,-4.87987 35.854892,-13.267149 L 73.288302,83.567784 c -4.885887,3.354911 -11.124788,5.261111 -18.416035,5.261111 -14.131488,0 -26.083119,-9.683493 -30.367666,-22.64565 H 6.5395716 V 80.365369 C 15.710005,98.893628 34.42671,110.55957 54.872267,110.55957 Z"
             id="path16"
             inkscape:connector-curvature="0"
             style="fill:#34a853" />
          <path
             d="m 24.504601,66.183245 c -2.255024,-6.78607 -2.255024,-14.182124 0,-21.044442 V 31.032927 H 6.5395716 c -7.7422514,15.47834 -7.7422514,33.777855 0,49.256194 z"
             id="path18"
             inkscape:connector-curvature="0"
             style="fill:#fbbc04" />
          <path
             d="m 54.872267,22.493154 c 7.742252,-0.152496 15.183833,2.821175 20.746227,8.234781 L 91.102997,15.020852 C 81.256056,5.7185984 68.327248,0.60998383 54.872267,0.76247978 34.42671,0.76247978 15.710005,12.504668 6.5395716,31.032927 L 24.504601,45.215051 C 28.789148,32.176647 40.740779,22.493154 54.872267,22.493154 Z"
             id="path20"
             inkscape:connector-curvature="0"
             style="fill:#ea4335" />
        </g>
      </g>
    </g>
  </g>
</svg>
